…
### 3\. Fetch the data

Now for the easy part\!

When you are ready with your current

To fetch the data, call the `fetch` function on the client:

``` r
df <- fetch(cl)
df
#> # A tibble: 2,941 x 44
#>     fips vintage             dt                  cases_total deaths_total
#>    <dbl> <dttm>              <dttm>                    <dbl>        <dbl>
#>  1     6 2020-06-09 20:00:00 2020-03-03 19:00:00         NaN          NaN
#>  2     6 2020-06-09 20:00:00 2020-03-04 19:00:00         NaN          NaN
#>  3     6 2020-06-09 20:00:00 2020-03-05 19:00:00         NaN          NaN
#>  4     6 2020-06-09 20:00:00 2020-03-06 19:00:00         NaN          NaN
#>  5     6 2020-06-09 20:00:00 2020-03-07 19:00:00         NaN          NaN
#>  6     6 2020-06-09 20:00:00 2020-03-08 20:00:00         NaN          NaN
#>  7     6 2020-06-09 20:00:00 2020-03-09 20:00:00         NaN          NaN
#>  8     6 2020-06-09 20:00:00 2020-03-10 20:00:00         NaN          NaN
#>  9     6 2020-06-09 20:00:00 2020-03-11 20:00:00         NaN            4
#> 10     6 2020-06-09 20:00:00 2020-03-12 20:00:00         NaN            4
#> # … with 2,931 more rows, and 39 more variables:
#> #   hospital_beds_in_use_covid_confirmed <dbl>,
#> #   hospital_beds_in_use_covid_suspected <dbl>,
#> #   hospital_beds_in_use_covid_total <dbl>,
#> #   icu_beds_in_use_covid_confirmed <dbl>,
#> #   icu_beds_in_use_covid_suspected <dbl>, icu_beds_in_use_covid_total <dbl>,
#> #   negative_tests_total <dbl>, positive_tests_total <dbl>, meta_date <dttm>,
#> #   `Fraction of population over 65_2018-01-01` <dbl>, `Mean household
#> #   income_2018-01-01` <dbl>, `Mean travel time to work
…
We have created this library so that as we add new datasets to our
backend, they automatically appear here and are accessible via this
library

Please check back often and see what has been updated

### Examples

``` r
# Single dataset all
cl %>% mobility_devices() %>% fetch()
#> # A tibble: 279,315 x 6
#>     fips dt                    dex dex_a num_devices num_devices_a
#>    <dbl> <dttm>              <dbl> <dbl>       <dbl>         <dbl>
#>  1     1 2020-01-19 19:00:00  169.  157.      499012        537243
#>  2     1 2020-01-20 19:00:00  126.  120.      510377        537243
#>  3     1 2020-01-21 19:00:00  129.  123.      512102        537243
#>  4     1 2020-01-22 19:00:00  133.  129.      518147        537243
#>  5     1 2020-01-23 19:00:00  201.  193.      515504        537243
#>  6     1 2020-01-24 19:00:00  215.  201.      501874        537243
#>  7     1 2020-01-25 19:00:00  134.  125.      504931        537243
#>  8     1 2020-01-26 19:00:00  128.  124.      518708        537243
#>  9     1 2020-01-27 19:00:00  124.  120.      519096        537243
#> 10     1 2020-01-28 19:00:00  125.  122.      522119        537243
#> # … with 279,305 more rows
```

``` r
# Single dataset filter on deaths
cl %>% covid(fips="<100", variable="deaths_total", value=">100") %>% fetch()
#> # A tibble: 2,406 x 4
#>     fips vintage             dt                  deaths_total
#>    <dbl> <dttm>              <dttm>                     <dbl>
#>  1     1 2020-06-09 20:00:00 2020-04-13 20:00:00          110
#>  2     1 2020-06-09 20:00:00 2020-04-14 20:00:00          121
#>  3     1 2020-06-09 20:00:00 2020-04-15 20:00:00          133
#>  4     1 2020-06-09 20:00:00 2020-04-16 20:00:00          144
#>  5     1 2020-06-09 20:00:00 2020-04-17 20:00:00          146
#>  6     1 2020-06-09 20:00:00 2020-04-18 20:00:00          154
#>  7     1 2020-06-09 20:00:00 2020-04-19 20:00:00          167
#>  8     1 2020-06-09 20:00:00 2020-04-20 20:00:00          177
#>  9     1 2020-06-09 20:00:00 2020-04-21 20:00:00          194
#> 10     1 2020-06-09 20:00:00 2020-04-22 20:00:00          197
#> # … with 2,396 more rows
```

``` r
# Single dataset single states with all counties
cl %>% mobility_devices(state="48") %>% fetch()
#> # A tibble: 19,980 x 6
#>     fips dt                    dex dex_a num_devices num_devices_a
#>    <dbl> <dttm>              <dbl> <dbl>       <dbl>         <dbl>
#>  1    48 2020-01-19 19:00:00  380.  350.     2286293       2484430
#>  2    48 2020-01-20 19:00:00  316.  299.     2353190       2484430
#>  3    48 2020-01-21 19:00:00  291.  277.     2364256       2484430
#>  4    48 2020-01-22 19:00:00  359.  343.     2373529       2484430
#>  5    48 2020-01-23 19:00:00  413.  392.     2357238       2484430
#>  6    48 2020-01-24 19:00:00  387.  359.     2308221       2484430
#>  7    48 2020-01-25 19:00:00  310.  287.     2297910       2484430
#>  8    48 2020-01-26 19:00:00  324.  312.     2391577       2484430
#>  9    48 2020-01-27 19:00:00  288.  279.     2405361       2484430
#> 10    48 2020-01-28 19:00:00  310.  298.     2390516       2484430
#> # … with 19,970 more rows
# OR: `cl %>% mobility_devices(state=as.integer(48)) %>% fetch()`
# OR: `cl %>% mobility_devices(state="TX") %>% fetch()`
```

``` r
# Single dataset multiple states with all counties
cl %>% mobility_devices(state=c("CA", "TX")) %>% fetch()
#> # A tibble: 26,865 x 6
#>     fips dt                    dex dex_a num_devices num_devices_a
#>    <dbl> <dttm>              <dbl> <dbl>       <dbl>         <dbl>
#>  1     6 2020-01-19 19:00:00  184.  171.     1758372       1889100
#>  2     6 2020-01-20 19:00:00  140.  135.     1817536       1889100
#>  3     6 2020-01-21 19:00:00  138.  133.     1819199       1889100
#>  4     6 2020-01-22 19:00:00  156.  151.     1828709       1889100
#>  5     6 2020-01-23 19:00:00  183.  176.     1818155       1889100
#>  6     6 2020-01-24 19:00:00  181.  169.     1769486       1889100
#>  7     6 2020-01-25 19:00:00  164.  152.     1757118       1889100
#>  8     6 2020-01-26 19:00:00  146.  142.     1838461       1889100
#>  9     6 2020-01-27 19:00:00  129.  125.     1829651       1889100
#> 10     6 2020-01-28 19:00:00  136.  132.     1838290       1889100
#> # … with 26,855 more rows
```

``` r
# Single dataset variable select
cl %>% demographics(variable=c(
    "Total population", "Fraction of population over 65", "Median age"
)) %>% fetch()
#> # A tibble: 878 x 5
#>     fips meta_date           `Fraction of pop… `Median age_201… `Total populati…
#>    <dbl> <dttm>                          <dbl>            <dbl>            <dbl>
#>  1     1 2017-12-31 19:00:00              17               39.3          4887871
#>  2     2 2017-12-31 19:00:00              11.9             34.9           737438
#>  3     4 2017-12-31 19:00:00              17.6             38            7171646
#>  4     5 2017-12-31 19:00:00              16.8             38.1          3013825
#>  5     6 2017-12-31 19:00:00              14.3             36.7         39557044
#>  6     8 2017-12-31 19:00:00              14.2             36.9          5695564
#>  7     9 2017-12-31 19:00:00              17.2             41.1          3572665
#>  8    10 2017-12-31 19:00:00              18.7             41.1           967171
#>  9    11 2017-12-31 19:00:00              12.2             33.9           702455
#> 10    12 2017-12-31 19:00:00              20.5             42.2         21299324
#> # … with 868 more rows
```

``` r
# Multiple datasets all data
cl %>% demographics() %>% covid() %>% fetch()
#> # A tibble: 8,622 x 47
#>     fips meta_date           `Fraction of po… `Mean household… `Mean travel ti…
#>    <dbl> <dttm>                         <dbl>            <dbl>            <dbl>
#>  1     1 2017-12-31 19:00:00               17            69091             25.2
#>  2     1 2017-12-31 19:00:00               17            69091             25.2
#>  3     1 2017-12-31 19:00:00               17            69091             25.2
#>  4     1 2017-12-31 19:00:00               17            69091             25.2
#>  5     1 2017-12-31 19:00:00               17            69091             25.2
#>  6     1 2017-12-31 19:00:00               17            69091             25.2
#>  7     1 2017-12-31 19:00:00               17            69091             25.2
#>  8     1 2017-12-31 19:00:00               17            69091             25.2
#>  9     1 2017-12-31 19:00:00               17            69091             25.2
#> 10     1 2017-12-31 19:00:00               17            69091             25.2
#> # … with 8,612 more rows, and 42 more variables: `Median age_2018-01-01` <dbl>,
#> #   `Median household income_2018-01-01` <dbl>, `Percent
#> #   Asian_2018-01-01` <dbl>, `Percent Hispanic/Latino (any
#> #   race)_2018-01-01` <dbl>, `Percent Native American or Alaska
#> #   Native_2018-01-01` <dbl>, `Percent Native Hawaiian or other Pacific
#> #   Islander_2018-01-01` <dbl>, `Percent black_2018-01-01` <dbl>, `Percent of
#> #   16+ commute carpool_2018-01-01` <dbl>, `Percent of 16+ commute driving
#> #   alone_2018-01-01` <dbl>, `Percent of 16+ commute other
#> #   way_2018-01-01` <dbl>, `Percent of 16+ commute public
…
``` r
# Multiple datasets states only
cl %>% demographics() %>% covid(fips="<100") %>% fetch()
#> # A tibble: 4,963 x 40
#>     fips meta_date           `Fraction of po… `Mean household… `Mean travel ti…
#>    <dbl> <dttm>                         <dbl>            <dbl>            <dbl>
#>  1     1 2017-12-31 19:00:00               17            69091             25.2
#>  2     1 2017-12-31 19:00:00               17            69091             25.2
#>  3     1 2017-12-31 19:00:00               17            69091             25.2
#>  4     1 2017-12-31 19:00:00               17            69091             25.2
#>  5     1 2017-12-31 19:00:00               17            69091             25.2
#>  6     1 2017-12-31 19:00:00               17            69091             25.2
#>  7     1 2017-12-31 19:00:00               17            69091             25.2
#>  8     1 2017-12-31 19:00:00               17            69091             25.2
#>  9     1 2017-12-31 19:00:00               17            69091             25.2
#> 10     1 2017-12-31 19:00:00               17            69091             25.2
#> # … with 4,953 more rows, and 35 more variables: `Median age_2018-01-01` <dbl>,
#> #   `Median household income_2018-01-01` <dbl>, `Percent
#> #   Asian_2018-01-01` <dbl>, `Percent Hispanic/Latino (any
#> #   race)_2018-01-01` <dbl>, `Percent Native American or Alaska
#> #   Native_2018-01-01` <dbl>, `Percent Native Hawaiian or other Pacific
#> #   Islander_2018-01-01` <dbl>, `Percent black_2018-01-01` <dbl>, `Percent of
#> #   16+ commute carpool_2018-01-01` <dbl>, `Percent of 16+ commute driving
#> #   alone_2018-01-01` <dbl>, `Percent of 16+ commute other
#> #   way_2018-01-01` <dbl>, `Percent of 16+ commute public
…
``` r
# Multiple datasets counties only
cl %>% demographics() %>% covid(fips=">1000") %>% fetch()
#> # A tibble: 3,659 x 46
#>     fips meta_date           `Fraction of po… `Mean household… `Mean travel ti…
#>    <dbl> <dttm>                         <dbl>            <dbl>            <dbl>
#>  1  2020 2017-12-31 19:00:00             11.3           106660             19.6
#>  2  2020 2017-12-31 19:00:00             11.3           106660             19.6
#>  3  2020 2017-12-31 19:00:00             11.3           106660             19.6
#>  4  2020 2017-12-31 19:00:00             11.3           106660             19.6
#>  5  2020 2017-12-31 19:00:00             11.3           106660             19.6
#>  6  2020 2017-12-31 19:00:00             11.3           106660             19.6
#>  7  2020 2017-12-31 19:00:00             11.3           106660             19.6
#>  8  2020 2017-12-31 19:00:00             11.3           106660             19.6
#>  9  2020 2017-12-31 19:00:00             11.3           106660             19.6
#> 10  2020 2017-12-31 19:00:00             11.3           106660             19.6
#> # … with 3,649 more rows, and 41 more variables: `Median age_2018-01-01` <dbl>,
#> #   `Median household income_2018-01-01` <dbl>, `Percent
#> #   Asian_2018-01-01` <dbl>, `Percent Hispanic/Latino (any
#> #   race)_2018-01-01` <dbl>, `Percent Native American or Alaska
#> #   Native_2018-01-01` <dbl>, `Percent Native Hawaiian or other Pacific
#> #   Islander_2018-01-01` <dbl>, `Percent black_2018-01-01` <dbl>, `Percent of
#> #   16+ commute carpool_2018-01-01` <dbl>, `Percent of 16+ commute driving
#> #   alone_2018-01-01` <dbl>, `Percent of 16+ commute other
#> #   way_2018-01-01` <dbl>, `Percent of 16+ commute public
…
